{
    "name": "FDZ.Projects.OpenWorldProject",
    "references": [
        "GUID:656a78738263b094b95bd4509f4604a2",
        "GUID:6e02cc0761024b64ab679c5c199ab721",
        "GUID:6055be8ebefd69e48b49212b09b47b2f",
        "GUID:de4e6084e6d474788bb8c799d6b461ec",
        "GUID:d8b63aba1907145bea998dd612889d6b"
    ],
    "includePlatforms": [],
    "excludePlatforms": [],
    "allowUnsafeCode": false,
    "overrideReferences": false,
    "precompiledReferences": [],
    "autoReferenced": true,
    "defineConstraints": [],
    "versionDefines": [],
    "noEngineReferences": false
}