{
    "name": "FDZ.Projects.OpenWorldSystem",
    "references": [
        "GUID:656a78738263b094b95bd4509f4604a2",
        "GUID:d8b63aba1907145bea998dd612889d6b",
        "GUID:de4e6084e6d474788bb8c799d6b461ec"
    ],
    "includePlatforms": [],
    "excludePlatforms": [],
    "allowUnsafeCode": false,
    "overrideReferences": false,
    "precompiledReferences": [],
    "autoReferenced": true,
    "defineConstraints": [],
    "versionDefines": [],
    "noEngineReferences": false
}